<?xml version="1.0" encoding="UTF-8" standalone="no"?>
<svg
   xmlns:dc="http://purl.org/dc/elements/1.1/"
   xmlns:cc="http://creativecommons.org/ns#"
   xmlns:rdf="http://www.w3.org/1999/02/22-rdf-syntax-ns#"
   xmlns:svg="http://www.w3.org/2000/svg"
   xmlns="http://www.w3.org/2000/svg"
   xmlns:xlink="http://www.w3.org/1999/xlink"
   xmlns:sodipodi="http://sodipodi.sourceforge.net/DTD/sodipodi-0.dtd"
   xmlns:inkscape="http://www.inkscape.org/namespaces/inkscape"
   width="1200"
   height="800"
   version="1.1"
   id="svg13"
   sodipodi:docname="Netlify_logo.svg"
   inkscape:version="0.92.5 (2060ec1f9f, 2020-04-08)"
   inkscape:export-filename="/home/muchina/Projects/blog.staging/assets/img/posts/site-cost/Netlify_logo.png"
   inkscape:export-xdpi="86.400002"
   inkscape:export-ydpi="86.400002">
  <metadata
     id="metadata19">
    <rdf:RDF>
      <cc:Work
         rdf:about="">
        <dc:format>image/svg+xml</dc:format>
        <dc:type
           rdf:resource="http://purl.org/dc/dcmitype/StillImage" />
        <dc:title />
      </cc:Work>
    </rdf:RDF>
  </metadata>
  <defs
     id="defs17">
    <radialGradient
       inkscape:collect="always"
       xlink:href="#a"
       id="radialGradient840"
       cx="756.94116"
       cy="540.86969"
       fx="756.94116"
       fy="540.86969"
       r="153.25311"
       gradientTransform="matrix(2.3865403,0.00585868,-0.00582832,2.3741802,-1043.3087,-746.89134)"
       gradientUnits="userSpaceOnUse" />
    <radialGradient
       inkscape:collect="always"
       xlink:href="#a"
       id="radialGradient860"
       gradientUnits="userSpaceOnUse"
       gradientTransform="matrix(2.5185707,0.02980524,-0.04312704,3.6442738,-744.43406,-1207.175)"
       cx="503.02438"
       cy="450.85428"
       fx="503.02438"
       fy="450.85428"
       r="54.992596" />
    <radialGradient
       inkscape:collect="always"
       xlink:href="#a"
       id="radialGradient862"
       gradientUnits="userSpaceOnUse"
       gradientTransform="matrix(-0.07627118,-2.517592,2.896249,-0.0877427,-46.699414,730.96373)"
       cx="483.40298"
       cy="189.36661"
       fx="483.40298"
       fy="189.36661"
       r="54.992596" />
  </defs>
  <sodipodi:namedview
     pagecolor="#ffffff"
     bordercolor="#666666"
     borderopacity="1"
     objecttolerance="10"
     gridtolerance="10"
     guidetolerance="10"
     inkscape:pageopacity="0"
     inkscape:pageshadow="2"
     inkscape:window-width="1680"
     inkscape:window-height="991"
     id="namedview15"
     showgrid="false"
     inkscape:zoom="0.55059294"
     inkscape:cx="333.52882"
     inkscape:cy="247.43698"
     inkscape:window-x="0"
     inkscape:window-y="28"
     inkscape:window-maximized="1"
     inkscape:current-layer="svg13" />
  <radialGradient
     id="a"
     cy="0.82847679"
     r="38.36422"
     gradientTransform="matrix(7.0546441,0,0,7.0624049,92.206147,258.82601)"
     cx="19.992489"
     fx="19.992489"
     fy="0.82847679"
     gradientUnits="userSpaceOnUse">
    <stop
       offset="0"
       stop-color="#20c6b7"
       id="stop2" />
    <stop
       offset="1"
       stop-color="#4d9abf"
       id="stop4" />
  </radialGradient>
  <path
     style="fill:url(#a);fill-rule:nonzero;stroke-width:7.05852318"
     inkscape:connector-curvature="0"
     id="path9"
     d="m 294.00226,358.59824 -0.0989,-0.0423 c -0.0563,-0.0211 -0.11293,-0.0423 -0.16234,-0.0918 a 0.77643758,0.77643758 0 0 1 -0.19766,-0.65643 l 5.45625,-33.35859 25.58716,25.5942 -26.61066,11.32188 a 0.58585745,0.58585745 0 0 1 -0.23292,0.0423 h -0.10579 c -0.0352,-0.0211 -0.0706,-0.0494 -0.14123,-0.11993 a 12.112426,12.112426 0 0 0 -3.49395,-2.68929 z m 37.11372,-2.03285 27.35885,27.35884 c 5.68209,5.68915 8.52668,8.52669 9.56428,11.81596 0.15537,0.48704 0.28235,0.97407 0.38118,1.47522 l -65.38312,-27.69057 a 5.1386052,5.1386052 0 0 0 -0.10595,-0.0423 c -0.26117,-0.10597 -0.56468,-0.22587 -0.56468,-0.49409 0,-0.26822 0.31057,-0.39527 0.57172,-0.50116 l 0.0847,-0.0352 z m 36.18906,49.43084 c -1.41172,2.65399 -4.16453,5.40682 -8.82317,10.0725 l -30.84573,30.8387 -39.89478,-8.30788 -0.21175,-0.0423 c -0.35293,-0.0564 -0.72704,-0.11994 -0.72704,-0.43763 a 12.041842,12.041842 0 0 0 -4.62332,-8.42083 c -0.16236,-0.16235 -0.11995,-0.41645 -0.0706,-0.64938 0,-0.0352 0,-0.0706 0.0136,-0.0988 l 7.50325,-46.06392 0.0283,-0.15536 c 0.0423,-0.35293 0.10596,-0.76233 0.4235,-0.76233 a 12.211245,12.211245 0 0 0 8.18789,-4.6939 c 0.0635,-0.0706 0.10595,-0.14821 0.19059,-0.19059 0.22585,-0.10597 0.49409,0 0.72701,0.0987 l 68.11477,28.8129 z m -46.76273,48.00501 -50.72254,50.72255 8.68199,-53.36243 0.0136,-0.0706 c 0.007,-0.0706 0.0211,-0.14122 0.0423,-0.2047 0.0706,-0.16932 0.25411,-0.23999 0.43059,-0.31057 l 0.0847,-0.0352 a 13.058269,13.058269 0 0 0 4.90568,-3.64927 c 0.16932,-0.19763 0.37408,-0.38821 0.63525,-0.42351 a 0.63526712,0.63526712 0 0 1 0.2047,0 l 35.71613,7.34086 z m -61.45855,61.45857 -5.7174,5.7174 -63.20908,-91.35141 a 2.9928139,2.9928139 0 0 0 -0.0706,-0.0987 c -0.0988,-0.13407 -0.2047,-0.26822 -0.18353,-0.42352 0,-0.11295 0.0777,-0.21175 0.15536,-0.29645 l 0.0706,-0.0918 c 0.19057,-0.28235 0.35292,-0.56467 0.52939,-0.8682 l 0.14123,-0.24705 0.0211,-0.0211 c 0.0987,-0.16933 0.19059,-0.33176 0.36,-0.4235 0.1482,-0.0706 0.35292,-0.0423 0.51527,-0.007 l 70.02762,14.44174 a 1.1575979,1.1575979 0 0 1 0.53644,0.23294 c 0.0918,0.0918 0.11294,0.19058 0.13407,0.30351 a 12.401826,12.401826 0 0 0 7.25615,8.29376 c 0.19765,0.0989 0.11295,0.31765 0.0211,0.55057 a 1.6799286,1.6799286 0 0 0 -0.10595,0.31764 c -0.88233,5.36447 -8.44906,51.51309 -10.48191,63.97139 z m -11.94302,11.93596 c -4.21394,4.17158 -6.69854,6.3809 -9.50785,7.27028 a 14.117047,14.117047 0 0 1 -8.51255,0 c -3.28929,-1.04466 -6.13388,-3.8822 -11.81597,-9.57135 l -63.47731,-63.4773 16.58048,-25.71422 c 0.0777,-0.12708 0.15534,-0.23997 0.28234,-0.33175 0.17644,-0.12708 0.43055,-0.0706 0.64232,0 a 17.180446,17.180446 0 0 0 11.56187,-0.58585 c 0.19057,-0.0706 0.38114,-0.11992 0.52938,0.0136 a 1.3411194,1.3411194 0 0 1 0.19764,0.22586 l 63.51965,92.17731 z m -99.43342,-71.89813 -14.56174,-14.56173 28.75643,-12.2677 a 0.59291599,0.59291599 0 0 1 0.23292,-0.0494 c 0.23999,0 0.38116,0.24 0.50822,0.45881 a 20.540304,20.540304 0 0 0 0.91763,1.29876 l 0.0918,0.11295 c 0.0847,0.11993 0.0283,0.23999 -0.0566,0.35292 l -15.88164,24.65544 z M 126.70117,434.49148 108.2784,416.06873 c -3.13397,-3.13398 -5.40683,-5.40683 -6.98793,-7.36203 l 56.01643,11.61832 a 5.9291599,5.9291599 0 0 0 0.21178,0.0352 c 0.34585,0.0563 0.72701,0.11992 0.72701,0.44467 0,0.35293 -0.41644,0.51528 -0.76936,0.6494 l -0.16236,0.0706 z M 98.071779,399.23415 a 14.117047,14.117047 0 0 1 0.635271,-3.49396 c 1.044659,-3.28927 3.88219,-6.12681 9.57135,-11.81596 l 23.57547,-23.57548 a 15355.994,15355.994 0 0 0 32.65273,47.20034 c 0.19058,0.25412 0.40232,0.53646 0.18352,0.74821 -1.03055,1.13642 -2.06109,2.37873 -2.78811,3.7269 a 1.1293638,1.1293638 0 0 1 -0.35293,0.43763 c -0.0918,0.0563 -0.19058,0.0352 -0.29647,0.0136 h -0.0136 L 98.072252,399.22661 Z m 40.092411,-45.19572 31.68571,-31.69982 c 2.98575,1.30581 13.8347,5.88681 23.52604,9.98075 7.34089,3.10574 14.03238,5.92915 16.13581,6.84675 0.21175,0.0847 0.40232,0.16934 0.4941,0.38118 0.0563,0.12708 0.0283,0.2894 0,0.4235 a 14.138222,14.138222 0 0 0 3.69159,12.90298 c 0.21178,0.21175 0,0.51528 -0.18351,0.77645 l -0.0989,0.14821 -32.18686,49.85435 c -0.0847,0.14122 -0.16234,0.26116 -0.30352,0.35292 -0.16934,0.1058 -0.4094,0.0564 -0.60704,0.007 a 16.051082,16.051082 0 0 0 -3.83276,-0.52234 c -1.1576,0 -2.41403,0.21177 -3.68457,0.44471 h -0.007 c -0.14124,0.0211 -0.26824,0.0494 -0.38116,-0.0352 a 1.4822899,1.4822899 0 0 1 -0.31764,-0.35998 l -33.93764,-49.50122 z m 38.10191,-38.1019 41.03827,-41.03827 c 5.68209,-5.68211 8.52668,-8.5267 11.81596,-9.5643 a 14.117047,14.117047 0 0 1 8.51256,0 c 3.2893,1.0376 6.13387,3.88219 11.81598,9.5643 l 8.89375,8.89376 -29.18702,45.20277 a 1.0940712,1.0940712 0 0 1 -0.28939,0.3388 c -0.17646,0.11994 -0.42351,0.0706 -0.63526,0 a 14.801724,14.801724 0 0 0 -13.55236,2.61167 c -0.1906,0.19762 -0.47293,0.0846 -0.71293,-0.0211 -3.81159,-1.65875 -33.45739,-14.18763 -37.69956,-15.98754 z m 88.27389,-25.94713 26.94943,26.94944 -6.49383,40.21945 v 0.10579 a 0.95290067,0.95290067 0 0 1 -0.0566,0.26823 c -0.0706,0.14123 -0.21175,0.16934 -0.35292,0.21176 a 12.917097,12.917097 0 0 0 -3.86807,1.92697 1.0870126,1.0870126 0 0 0 -0.14124,0.11993 c -0.0777,0.0847 -0.15518,0.16236 -0.28234,0.17648 a 0.80467167,0.80467167 0 0 1 -0.30351,-0.0494 l -41.06647,-17.44868 -0.0777,-0.0352 c -0.26116,-0.10579 -0.57174,-0.23293 -0.57174,-0.50115 a 15.514634,15.514634 0 0 0 -2.18814,-6.45856 c -0.19765,-0.32469 -0.41646,-0.66349 -0.24706,-0.99525 z m -27.75411,60.74564 38.49717,16.3052 c 0.21176,0.0989 0.4447,0.19057 0.53646,0.40939 a 0.7482035,0.7482035 0 0 1 0,0.40233 c -0.11295,0.56468 -0.21175,1.207 -0.21175,1.85639 v 1.07995 c 0,0.26823 -0.27528,0.38117 -0.5294,0.48705 l -0.0777,0.0283 c -6.09857,2.60459 -85.6199,36.51373 -85.7399,36.51373 -0.11993,0 -0.24705,0 -0.36702,-0.11992 -0.21177,-0.21177 0,-0.50822 0.19057,-0.77646 a 5.3644779,5.3644779 0 0 0 0.0988,-0.14122 l 31.63628,-48.98614 0.0564,-0.0846 c 0.18352,-0.29645 0.39527,-0.62821 0.73408,-0.62821 l 0.31764,0.0494 c 0.71996,0.0987 1.35524,0.19057 1.99756,0.19057 4.79979,0 9.24667,-2.33636 11.92891,-6.3315 a 1.1293638,1.1293638 0 0 1 0.23997,-0.28233 c 0.19058,-0.14123 0.47293,-0.0706 0.69175,0.0283 z m -44.08753,64.83254 86.67865,-36.9655 c 0,0 0.12709,0 0.24705,0.11994 0.47294,0.47292 0.87525,0.79055 1.26347,1.08701 l 0.19058,0.11993 c 0.17647,0.0988 0.35293,0.21175 0.36705,0.39527 0,0.0706 0,0.11294 -0.0136,0.17648 l -7.42556,45.61217 -0.0283,0.18352 c -0.0494,0.35294 -0.0988,0.75526 -0.43056,0.75526 a 12.204187,12.204187 0 0 0 -9.69136,5.97858 l -0.0352,0.0566 c -0.0988,0.16236 -0.1906,0.31763 -0.35293,0.40233 -0.14821,0.0706 -0.33883,0.0423 -0.4941,0.007 l -69.12411,-14.25853 c -0.0706,-0.0136 -1.07289,-3.66336 -1.15054,-3.67044 z" />
  <path
     style="clip-rule:evenodd;fill:url(#radialGradient840);fill-rule:evenodd;stroke-width:19.15663719;fill-opacity:1"
     inkscape:connector-curvature="0"
     d="m 914.38857,246.89518 c -84.67234,0 -153.2531,68.58076 -153.2531,153.2531 0,67.8145 43.8687,125.09285 104.78681,145.39889 7.66266,1.34096 10.53615,-3.25663 10.53615,-7.27953 0,-3.63976 -0.19157,-15.70844 -0.19157,-28.54339 -38.50484,7.08796 -48.46629,-9.38675 -51.53135,-18.00724 -1.7241,-4.40602 -9.19519,-18.00724 -15.70844,-21.647 -5.36386,-2.87349 -13.02652,-9.96145 -0.19157,-10.15302 12.06868,-0.19156 20.68917,11.11085 23.56266,15.70845 13.79278,23.17953 35.82292,16.66627 44.63497,12.64338 1.34096,-9.96145 5.36386,-16.66628 9.76989,-20.4976 -34.09882,-3.83133 -69.73017,-17.04941 -69.73017,-75.66872 0,-16.66628 5.93856,-30.45906 15.70845,-41.18678 -1.53253,-3.83132 -6.89639,-19.53977 1.53253,-40.61207 0,0 12.83494,-4.02289 42.1446,15.70844 12.26025,-3.44819 25.28676,-5.17229 38.31328,-5.17229 13.02651,0 26.05302,1.7241 38.31327,5.17229 29.30966,-19.9229 42.14461,-15.70844 42.14461,-15.70844 8.42891,21.0723 3.0651,36.78075 1.5325,40.61207 9.76991,10.72772 15.70851,24.32893 15.70851,41.18678 0,58.81087 -35.82295,71.83739 -69.92177,75.66872 5.55543,4.78916 10.34459,13.98434 10.34459,28.35182 0,20.4976 -0.19157,36.97231 -0.19157,42.1446 0,4.0229 2.8735,8.81206 10.53615,7.27953 60.535,-20.30604 104.4037,-77.77595 104.4037,-145.39889 0,-84.67234 -68.58081,-153.2531 -153.25313,-153.2531 z"
     id="path1007" />
  <rect
     style="opacity:1;vector-effect:none;fill:url(#radialGradient860);fill-opacity:1;stroke:none;stroke-width:1.64866149;stroke-linecap:butt;stroke-linejoin:bevel;stroke-miterlimit:4;stroke-dasharray:none;stroke-dashoffset:0;stroke-opacity:1;paint-order:stroke fill markers"
     id="rect1049"
     width="9.165432"
     height="109.98519"
     x="552.92841"
     y="345.00742" />
  <rect
     style="opacity:1;vector-effect:none;fill:url(#radialGradient862);fill-opacity:1;stroke:none;stroke-width:1.64866149;stroke-linecap:butt;stroke-linejoin:bevel;stroke-miterlimit:4;stroke-dasharray:none;stroke-dashoffset:0;stroke-opacity:1;paint-order:stroke fill markers"
     id="rect1049-6"
     width="9.165432"
     height="109.98519"
     x="395.4173"
     y="-612.50372"
     transform="rotate(90)" />
</svg>
