<?xml version="1.0" encoding="UTF-8" standalone="no"?>
<svg
   xmlns:dc="http://purl.org/dc/elements/1.1/"
   xmlns:cc="http://creativecommons.org/ns#"
   xmlns:rdf="http://www.w3.org/1999/02/22-rdf-syntax-ns#"
   xmlns:svg="http://www.w3.org/2000/svg"
   xmlns="http://www.w3.org/2000/svg"
   xmlns:sodipodi="http://sodipodi.sourceforge.net/DTD/sodipodi-0.dtd"
   xmlns:inkscape="http://www.inkscape.org/namespaces/inkscape"
   height="360"
   viewBox="14.658 16.443 207.86 74.574192"
   width="1000"
   version="1.1"
   id="svg12"
   sodipodi:docname="ubuntu.svg"
   inkscape:version="0.92.5 (2060ec1f9f, 2020-04-08)">
  <metadata
     id="metadata18">
    <rdf:RDF>
      <cc:Work
         rdf:about="">
        <dc:format>image/svg+xml</dc:format>
        <dc:type
           rdf:resource="http://purl.org/dc/dcmitype/StillImage" />
        <dc:title></dc:title>
      </cc:Work>
    </rdf:RDF>
  </metadata>
  <defs
     id="defs16" />
  <sodipodi:namedview
     pagecolor="#ffffff"
     bordercolor="#666666"
     borderopacity="1"
     objecttolerance="10"
     gridtolerance="10"
     guidetolerance="10"
     inkscape:pageopacity="0"
     inkscape:pageshadow="2"
     inkscape:window-width="1680"
     inkscape:window-height="994"
     id="namedview14"
     showgrid="false"
     inkscape:zoom="0.46798949"
     inkscape:cx="754.02043"
     inkscape:cy="-276.28196"
     inkscape:window-x="0"
     inkscape:window-y="28"
     inkscape:window-maximized="1"
     inkscape:current-layer="svg12" />
  <g
     id="g1073"
     transform="matrix(1.3621732,0,0,1.3621732,-3.3096095,-19.459601)">
    <path
       style="fill:#666666;stroke-width:0.15151338"
       inkscape:connector-curvature="0"
       id="path2"
       d="m 144.9345,60.364284 c 1.85605,0.151514 3.37118,-0.246208 3.37118,-0.246208 V 48.451545 h 2.49998 v 13.427873 c -1.94438,0.435601 -7.63886,2.29164 -10.17034,-1.439377 -1.0312,-1.786494 -1.02272,-3.806773 -1.02272,-3.806773 v -8.181723 h 2.6136 c 0,0 -0.004,7.011584 -0.01,8.219752 0,2.171641 0.99635,3.692987 2.71769,3.692987 z m -7.52521,-0.359237 c 0,0 -0.51757,0.508175 -2.57573,0.681809 -2.12118,0 -2.6136,-1.802403 -2.60103,-2.601182 v -7.146279 h 5.17676 v -2.070582 h -5.17676 v -4.343585 l -2.52511,0.505145 v 12.727123 c 0,0 0.0883,2.739968 1.1868,3.838441 1.09847,1.098471 2.92936,1.969673 7.07067,0.530296 -0.36151,-1.536042 -0.5556,-2.121186 -0.5556,-2.121186 z M 121.3163,50.106222 c -1.85603,-0.151513 -3.37117,0.24621 -3.37117,0.24621 v 11.66653 h -2.49997 V 48.591089 c 1.94437,-0.435601 7.63885,-2.29164 10.17033,1.439377 1.03121,1.786495 1.02272,3.806774 1.02272,3.806774 v 8.181722 h -2.61361 c 0,0 0.004,-7.011584 0.01,-8.219752 -1.5e-4,-2.171641 -0.99651,-3.692988 -2.7177,-3.692988 z m -15.12785,10.258062 c 1.85604,0.151514 3.37117,-0.246208 3.37117,-0.246208 V 48.451545 h 2.49997 v 13.427873 c -1.94437,0.435601 -7.63885,2.29164 -10.17033,-1.439377 -1.03121,-1.786494 -1.02272,-3.806773 -1.02272,-3.806773 v -8.181723 h 2.61361 c 0,0 -0.004,7.011584 -0.01,8.219752 1.5e-4,2.171641 0.99651,3.692987 2.7177,3.692987 z m -17.500247,-0.06666 v -8.541566 c 0,0 0.549235,-1.079532 2.992388,-1.079532 2.443151,0 2.784061,0.719688 3.068151,1.041653 0.28408,0.321967 0.90908,0.94696 0.90908,3.295416 0.0568,2.689363 -0.51136,5.643874 -4.166622,5.643874 -2.208762,0 -2.61603,-0.09227 -2.802997,-0.359845 z m -2.528304,1.749526 c 0,0 1.666646,0.833323 5.075698,0.833323 3.409055,0 7.083254,-1.893917 7.083254,-7.462033 0,-5.568117 -4.257679,-7.121129 -6.143871,-7.121129 -1.88619,0 -3.486626,1.098472 -3.486626,1.098472 v -7.310521 l -2.528455,0.378784 z m -8.757775,-1.682859 c 1.856039,0.151513 3.371173,-0.246209 3.371173,-0.246209 V 48.451547 h 2.49997 V 61.87942 C 81.328896,62.315021 75.634418,64.17106 73.102932,60.440043 72.071731,58.653549 72.080216,56.63327 72.080216,56.63327 v -8.181723 h 2.613607 c 0,0 -0.0047,7.011584 -0.0094,8.219752 1.51e-4,2.171641 0.996503,3.692988 2.717695,3.692988 z" />
    <g
       style="fill:#ff6600;fill-opacity:1;stroke:none;stroke-opacity:1"
       transform="matrix(0.15151338,0,0,0.15151338,-0.12442778,30.249611)"
       id="g10">
      <path
         style="fill:#ff6600;fill-opacity:1;stroke:none;stroke-opacity:1"
         inkscape:connector-curvature="0"
         id="path6"
         d="m 223.458,132.896 a 26.852,26.852 0 0 1 8.814,9.231 c 7.3,12.645 3.214,28.718 -9.072,36.389 a 80.095,80.095 0 0 0 7.514,17.591 c 6.752,11.695 14.153,19.887 24.848,26.594 l 13.779,-23.867 c -6.65,-4.357 -10.564,-9.12 -14.811,-16.477 -14.498,-25.11 -5.893,-57.219 19.216,-71.717 l -13.75,-23.816 c -18.317,10.578 -30.851,27.309 -36.538,46.072 z m 135.153,-31.26 -0.268,-0.151 -0.206,0.358 0.206,-0.358 -0.154,-0.087 c -0.416,0.271 -0.838,0.535 -1.272,0.786 -12.92,7.46 -29.426,3.036 -36.884,-9.884 -2.706,-4.687 -3.865,-9.459 -3.605,-14.487 -15.533,-3.266 -32.075,-1.926 -47.452,4.565 l 13.912,24.097 c 23.303,-8.06 49.788,1.235 62.575,23.383 a 52.248,52.248 0 0 1 7.025,25.224 h 27.456 c 0.012,-0.051 0.03,-0.099 0.049,-0.146 -0.178,-13.215 -3.636,-26.568 -10.714,-38.829 a 80.193,80.193 0 0 0 -10.668,-14.471 z m -80.72,102.39 -13.669,23.676 c 18.499,9.503 39.571,11.171 60.042,4.633 0.303,-9.007 5.108,-17.658 13.491,-22.498 7.328,-4.23 15.811,-4.639 23.141,-1.841 10.42,-12.229 16.797,-27.245 18.582,-42.915 h -27.759 c -2.576,14.799 -11.444,28.394 -25.472,36.492 -15.677,9.052 -33.131,9.629 -48.258,2.284" />
      <path
         style="fill:#ff6600;fill-opacity:1;stroke:none;stroke-opacity:1"
         inkscape:connector-curvature="0"
         id="path8"
         d="m 341.335,216.098 c 9.807,-5.661 22.335,-2.306 27.996,7.5 5.66,9.808 2.307,22.337 -7.502,27.996 -9.806,5.661 -22.335,2.308 -27.994,-7.501 -5.663,-9.807 -2.306,-22.335 7.5,-27.995 z M 334.737,58.351 c 9.807,-5.66 22.334,-2.305 27.995,7.499 5.659,9.809 2.307,22.338 -7.501,27.996 -9.807,5.662 -22.335,2.309 -27.996,-7.5 -5.661,-9.804 -2.306,-22.334 7.502,-27.995 z m -137.743,79.731 c 9.808,-5.661 22.336,-2.306 27.997,7.499 5.659,9.809 2.306,22.338 -7.502,27.996 -9.805,5.662 -22.334,2.309 -27.994,-7.5 -5.664,-9.806 -2.307,-22.336 7.499,-27.995 z" />
    </g>
  </g>
</svg>
